examples/sim/waves.vcd
$date
	Thu Nov  7 16:42:34 2019
$end
$version
	Icarus Verilog
$end
$timescale
	100ps
$end
$scope module tb $end
$var wire 1 ! o_uart_tx $end
$var wire 1 " o_busy $end
$var reg 1 # clk $end
$var reg 8 $ i_data [7:0] $end
$var reg 1 % i_wr $end
$scope module u_txuart $end
$var wire 1 # i_clk $end
$var wire 8 & i_data [7:0] $end
$var wire 1 % i_wr $end
$var wire 1 ! o_uart_tx $end
$var reg 1 ' baud_stb $end
$var reg 16 ( counter [15:0] $end
$var reg 9 ) lcl_data [8:0] $end
$var reg 1 " o_busy $end
$var reg 4 * state [3:0] $end
$upscope $end
$upscope $end
$enddefinitions $end
#0
$dumpvars
b1111 *
b111111111 )
b0 (
1'
bx &
0%
bx $
0#
0"
1!
$end
#200
1#
#400
0#
#600
1#
#800
0#
#1000
1#
#1200
0#
#1400
1#
#1600
0#
#1800
1#
#2000
0#
#2200
1#
#2400
0#
#2600
1#
#2800
0#
#3000
1#
#3200
0#
#3400
1#
#3600
0#
#3800
1#
#4000
0#
#4200
0!
1"
b0 *
b10010000 )
0'
b11011000 (
b1001000 $
b1001000 &
1%
1#
#4400
0#
#4600
b11010111 (
1#
#4800
0#
#5000
b11010110 (
1#
#5200
0#
#5400
b11010101 (
1#
#5600
0#
#5800
b11010100 (
1#
#6000
0#
#6200
b11010011 (
1#
#6400
0#
#6600
b11010010 (
1#
#6800
0#
#7000
b11010001 (
1#
#7200
0#
#7400
b11010000 (
1#
#7600
0#
#7800
b11001111 (
1#
#8000
0#
#8200
b11001110 (
1#
#8400
0#
#8600
b11001101 (
1#
#8800
0#
#9000
b11001100 (
1#
#9200
0#
#9400
b11001011 (
1#
#9600
0#
#9800
b11001010 (
1#
#10000
0#
#10200
b11001001 (
1#
#10400
0#
#10600
b11001000 (
1#
#10800
0#
#11000
b11000111 (
1#
#11200
0#
#11400
b11000110 (
1#
#11600
0#
#11800
b11000101 (
1#
#12000
0#
#12200
b11000100 (
1#
#12400
0#
#12600
b11000011 (
1#
#12800
0#
#13000
b11000010 (
1#
#13200
0#
#13400
b11000001 (
1#
#13600
0#
#13800
b11000000 (
1#
#14000
0#
#14200
b10111111 (
1#
#14400
0#
#14600
b10111110 (
1#
#14800
0#
#15000
b10111101 (
1#
#15200
0#
#15400
b10111100 (
1#
#15600
0#
#15800
b10111011 (
1#
#16000
0#
#16200
b10111010 (
1#
#16400
0#
#16600
b10111001 (
1#
#16800
0#
#17000
b10111000 (
1#
#17200
0#
#17400
b10110111 (
1#
#17600
0#
#17800
b10110110 (
1#
#18000
0#
#18200
b10110101 (
1#
#18400
0#
#18600
b10110100 (
1#
#18800
0#
#19000
b10110011 (
1#
#19200
0#
#19400
b10110010 (
1#
#19600
0#
#19800
b10110001 (
1#
#20000
0#
#20200
b10110000 (
1#
#20400
0#
#20600
b10101111 (
1#
#20800
0#
#21000
b10101110 (
1#
#21200
0#
#21400
b10101101 (
1#
#21600
0#
#21800
b10101100 (
1#
#22000
0#
#22200
b10101011 (
1#
#22400
0#
#22600
b10101010 (
1#
#22800
0#
#23000
b10101001 (
1#
#23200
0#
#23400
b10101000 (
1#
#23600
0#
#23800
b10100111 (
1#
#24000
0#
#24200
b10100110 (
1#
#24400
0#
#24600
b10100101 (
1#
#24800
0#
#25000
b10100100 (
1#
#25200
0#
#25400
b10100011 (
1#
#25600
0#
#25800
b10100010 (
1#
#26000
0#
#26200
b10100001 (
1#
#26400
0#
#26600
b10100000 (
1#
#26800
0#
#27000
b10011111 (
1#
#27200
0#
#27400
b10011110 (
1#
#27600
0#
#27800
b10011101 (
1#
#28000
0#
#28200
b10011100 (
1#
#28400
0#
#28600
b10011011 (
1#
#28800
0#
#29000
b10011010 (
1#
#29200
0#
#29400
b10011001 (
1#
#29600
0#
#29800
b10011000 (
1#
#30000
0#
#30200
b10010111 (
1#
#30400
0#
#30600
b10010110 (
1#
#30800
0#
#31000
b10010101 (
1#
#31200
0#
#31400
b10010100 (
1#
#31600
0#
#31800
b10010011 (
1#
#32000
0#
#32200
b10010010 (
1#
#32400
0#
#32600
b10010001 (
1#
#32800
0#
#33000
b10010000 (
1#
#33200
0#
#33400
b10001111 (
1#
#33600
0#
#33800
b10001110 (
1#
#34000
0#
#34200
b10001101 (
1#
#34400
0#
#34600
b10001100 (
1#
#34800
0#
#35000
b10001011 (
1#
#35200
0#
#35400
b10001010 (
1#
#35600
0#
#35800
b10001001 (
1#
#36000
0#
#36200
b10001000 (
1#
#36400
0#
#36600
b10000111 (
1#
#36800
0#
#37000
b10000110 (
1#
#37200
0#
#37400
b10000101 (
1#
#37600
0#
#37800
b10000100 (
1#
#38000
0#
#38200
b10000011 (
1#
#38400
0#
#38600
b10000010 (
1#
#38800
0#
#39000
b10000001 (
1#
#39200
0#
#39400
b10000000 (
1#
#39600
0#
#39800
b1111111 (
1#
#40000
0#
#40200
b1111110 (
1#
#40400
0#
#40600
b1111101 (
1#
#40800
0#
#41000
b1111100 (
1#
#41200
0#
#41400
b1111011 (
1#
#41600
0#
#41800
b1111010 (
1#
#42000
0#
#42200
b1111001 (
1#
#42400
0#
#42600
b1111000 (
1#
#42800
0#
#43000
b1110111 (
1#
#43200
0#
#43400
b1110110 (
1#
#43600
0#
#43800
b1110101 (
1#
#44000
0#
#44200
b1110100 (
1#
#44400
0#
#44600
b1110011 (
1#
#44800
0#
#45000
b1110010 (
1#
#45200
0#
#45400
b1110001 (
1#
#45600
0#
#45800
b1110000 (
1#
#46000
0#
#46200
b1101111 (
1#
#46400
0#
#46600
b1101110 (
1#
#46800
0#
#47000
b1101101 (
1#
#47200
0#
#47400
b1101100 (
1#
#47600
0#
#47800
b1101011 (
1#
#48000
0#
#48200
b1101010 (
1#
#48400
0#
#48600
b1101001 (
1#
#48800
0#
#49000
b1101000 (
1#
#49200
0#
#49400
b1100111 (
1#
#49600
0#
#49800
b1100110 (
1#
#50000
0#
#50200
b1100101 (
1#
#50400
0#
#50600
b1100100 (
1#
#50800
0#
#51000
b1100011 (
1#
#51200
0#
#51400
b1100010 (
1#
#51600
0#
#51800
b1100001 (
1#
#52000
0#
#52200
b1100000 (
1#
#52400
0#
#52600
b1011111 (
1#
#52800
0#
#53000
b1011110 (
1#
#53200
0#
#53400
b1011101 (
1#
#53600
0#
#53800
b1011100 (
1#
#54000
0#
#54200
b1011011 (
1#
#54400
0#
#54600
b1011010 (
1#
#54800
0#
#55000
b1011001 (
1#
#55200
0#
#55400
b1011000 (
1#
#55600
0#
#55800
b1010111 (
1#
#56000
0#
#56200
b1010110 (
1#
#56400
0#
#56600
b1010101 (
1#
#56800
0#
#57000
b1010100 (
1#
#57200
0#
#57400
b1010011 (
1#
#57600
0#
#57800
b1010010 (
1#
#58000
0#
#58200
b1010001 (
1#
#58400
0#
#58600
b1010000 (
1#
#58800
0#
#59000
b1001111 (
1#
#59200
0#
#59400
b1001110 (
1#
#59600
0#
#59800
b1001101 (
1#
#60000
0#
#60200
b1001100 (
1#
#60400
0#
#60600
b1001011 (
1#
#60800
0#
#61000
b1001010 (
1#
#61200
0#
#61400
b1001001 (
1#
#61600
0#
#61800
b1001000 (
1#
#62000
0#
#62200
b1000111 (
1#
#62400
0#
#62600
b1000110 (
1#
#62800
0#
#63000
b1000101 (
1#
#63200
0#
#63400
b1000100 (
1#
#63600
0#
#63800
b1000011 (
1#
#64000
0#
#64200
b1000010 (
1#
#64400
0#
#64600
b1000001 (
1#
#64800
0#
#65000
b1000000 (
1#
#65200
0#
#65400
b111111 (
1#
#65600
0#
#65800
b111110 (
1#
#66000
0#
#66200
b111101 (
1#
#66400
0#
#66600
b111100 (
1#
#66800
0#
#67000
b111011 (
1#
#67200
0#
#67400
b111010 (
1#
#67600
0#
#67800
b111001 (
1#
#68000
0#
#68200
b111000 (
1#
#68400
0#
#68600
b110111 (
1#
#68800
0#
#69000
b110110 (
1#
#69200
0#
#69400
b110101 (
1#
#69600
0#
#69800
b110100 (
1#
#70000
0#
#70200
b110011 (
1#
#70400
0#
#70600
b110010 (
1#
#70800
0#
#71000
b110001 (
1#
#71200
0#
#71400
b110000 (
1#
#71600
0#
#71800
b101111 (
1#
#72000
0#
#72200
b101110 (
1#
#72400
0#
#72600
b101101 (
1#
#72800
0#
#73000
b101100 (
1#
#73200
0#
#73400
b101011 (
1#
#73600
0#
#73800
b101010 (
1#
#74000
0#
#74200
b101001 (
1#
#74400
0#
#74600
b101000 (
1#
#74800
0#
#75000
b100111 (
1#
#75200
0#
#75400
b100110 (
1#
#75600
0#
#75800
b100101 (
1#
#76000
0#
#76200
b100100 (
1#
#76400
0#
#76600
b100011 (
1#
#76800
0#
#77000
b100010 (
1#
#77200
0#
#77400
b100001 (
1#
#77600
0#
#77800
b100000 (
1#
#78000
0#
#78200
b11111 (
1#
#78400
0#
#78600
b11110 (
1#
#78800
0#
#79000
b11101 (
1#
#79200
0#
#79400
b11100 (
1#
#79600
0#
#79800
b11011 (
1#
#80000
0#
#80200
b11010 (
1#
#80400
0#
#80600
b11001 (
1#
#80800
0#
#81000
b11000 (
1#
#81200
0#
#81400
b10111 (
1#
#81600
0#
#81800
b10110 (
1#
#82000
0#
#82200
b10101 (
1#
#82400
0#
#82600
b10100 (
1#
#82800
0#
#83000
b10011 (
1#
#83200
0#
#83400
b10010 (
1#
#83600
0#
#83800
b10001 (
1#
#84000
0#
#84200
b10000 (
1#
#84400
0#
#84600
b1111 (
1#
#84800
0#
#85000
b1110 (
1#
#85200
0#
#85400
b1101 (
1#
#85600
0#
#85800
b1100 (
1#
#86000
0#
#86200
b1011 (
1#
#86400
0#
#86600
b1010 (
1#
#86800
0#
#87000
b1001 (
1#
#87200
0#
#87400
b1000 (
1#
#87600
0#
#87800
b111 (
1#
#88000
0#
#88200
b110 (
1#
#88400
0#
#88600
b101 (
1#
#88800
0#
#89000
b100 (
1#
#89200
0#
#89400
b11 (
1#
#89600
0#
#89800
b10 (
1#
#90000
0#
#90200
b1 (
1#
#90400
0#
#90600
b0 (
1'
1#
#90800
0#
#91000
0'
b11011000 (
b101001000 )
b1 *
1#
#91200
0#
#91400
b11010111 (
1#
#91600
0#
#91800
b11010110 (
1#
#92000
0#
#92200
b11010101 (
1#
#92400
0#
#92600
b11010100 (
1#
#92800
0#
#93000
b11010011 (
1#
#93200
0#
#93400
b11010010 (
1#
#93600
0#
#93800
b11010001 (
1#
#94000
0#
#94200
b11010000 (
1#
#94400
0#
#94600
b11001111 (
1#
#94800
0#
#95000
b11001110 (
1#
#95200
0#
#95400
b11001101 (
1#
#95600
0#
#95800
b11001100 (
1#
#96000
0#
#96200
b11001011 (
1#
#96400
0#
#96600
b11001010 (
1#
#96800
0#
#97000
b11001001 (
1#
#97200
0#
#97400
b11001000 (
1#
#97600
0#
#97800
b11000111 (
1#
#98000
0#
#98200
b11000110 (
1#
#98400
0#
#98600
b11000101 (
1#
#98800
0#
#99000
b11000100 (
1#
#99200
0#
#99400
b11000011 (
1#
#99600
0#
#99800
b11000010 (
1#
#100000
0#
#100200
b11000001 (
1#
#100400
0#
#100600
b11000000 (
1#
#100800
0#
#101000
b10111111 (
1#
#101200
0#
#101400
b10111110 (
1#
#101600
0#
#101800
b10111101 (
1#
#102000
0#
#102200
b10111100 (
1#
#102400
0#
#102600
b10111011 (
1#
#102800
0#
#103000
b10111010 (
1#
#103200
0#
#103400
b10111001 (
1#
#103600
0#
#103800
b10111000 (
1#
#104000
0#
#104200
b10110111 (
1#
#104400
0#
#104600
b10110110 (
1#
#104800
0#
#105000
b10110101 (
1#
#105200
0#
#105400
b10110100 (
1#
#105600
0#
#105800
b10110011 (
1#
#106000
0#
#106200
b10110010 (
1#
#106400
0#
#106600
b10110001 (
1#
#106800
0#
#107000
b10110000 (
1#
#107200
0#
#107400
b10101111 (
1#
#107600
0#
#107800
b10101110 (
1#
#108000
0#
#108200
b10101101 (
1#
#108400
0#
#108600
b10101100 (
1#
#108800
0#
#109000
b10101011 (
1#
#109200
0#
#109400
b10101010 (
1#
#109600
0#
#109800
b10101001 (
1#
#110000
0#
#110200
b10101000 (
1#
#110400
0#
#110600
b10100111 (
1#
#110800
0#
#111000
b10100110 (
1#
#111200
0#
#111400
b10100101 (
1#
#111600
0#
#111800
b10100100 (
1#
#112000
0#
#112200
b10100011 (
1#
#112400
0#
#112600
b10100010 (
1#
#112800
0#
#113000
b10100001 (
1#
#113200
0#
#113400
b10100000 (
1#
#113600
0#
#113800
b10011111 (
1#
#114000
0#
#114200
b10011110 (
1#
#114400
0#
#114600
b10011101 (
1#
#114800
0#
#115000
b10011100 (
1#
#115200
0#
#115400
b10011011 (
1#
#115600
0#
#115800
b10011010 (
1#
#116000
0#
#116200
b10011001 (
1#
#116400
0#
#116600
b10011000 (
1#
#116800
0#
#117000
b10010111 (
1#
#117200
0#
#117400
b10010110 (
1#
#117600
0#
#117800
b10010101 (
1#
#118000
0#
#118200
b10010100 (
1#
#118400
0#
#118600
b10010011 (
1#
#118800
0#
#119000
b10010010 (
1#
#119200
0#
#119400
b10010001 (
1#
#119600
0#
#119800
b10010000 (
1#
#120000
0#
#120200
b10001111 (
1#
#120400
0#
#120600
b10001110 (
1#
#120800
0#
#121000
b10001101 (
1#
#121200
0#
#121400
b10001100 (
1#
#121600
0#
#121800
b10001011 (
1#
#122000
0#
#122200
b10001010 (
1#
#122400
0#
#122600
b10001001 (
1#
#122800
0#
#123000
b10001000 (
1#
#123200
0#
#123400
b10000111 (
1#
#123600
0#
#123800
b10000110 (
1#
#124000
0#
#124200
b10000101 (
1#
#124400
0#
#124600
b10000100 (
1#
#124800
0#
#125000
b10000011 (
1#
#125200
0#
#125400
b10000010 (
1#
#125600
0#
#125800
b10000001 (
1#
#126000
0#
#126200
b10000000 (
1#
#126400
0#
#126600
b1111111 (
1#
#126800
0#
#127000
b1111110 (
1#
#127200
0#
#127400
b1111101 (
1#
#127600
0#
#127800
b1111100 (
1#
#128000
0#
#128200
b1111011 (
1#
#128400
0#
#128600
b1111010 (
1#
#128800
0#
#129000
b1111001 (
1#
#129200
0#
#129400
b1111000 (
1#
#129600
0#
#129800
b1110111 (
1#
#130000
0#
#130200
b1110110 (
1#
#130400
0#
#130600
b1110101 (
1#
#130800
0#
#131000
b1110100 (
1#
#131200
0#
#131400
b1110011 (
1#
#131600
0#
#131800
b1110010 (
1#
#132000
0#
#132200
b1110001 (
1#
#132400
0#
#132600
b1110000 (
1#
#132800
0#
#133000
b1101111 (
1#
#133200
0#
#133400
b1101110 (
1#
#133600
0#
#133800
b1101101 (
1#
#134000
0#
#134200
b1101100 (
1#
#134400
0#
#134600
b1101011 (
1#
#134800
0#
#135000
b1101010 (
1#
#135200
0#
#135400
b1101001 (
1#
#135600
0#
#135800
b1101000 (
1#
#136000
0#
#136200
b1100111 (
1#
#136400
0#
#136600
b1100110 (
1#
#136800
0#
#137000
b1100101 (
1#
#137200
0#
#137400
b1100100 (
1#
#137600
0#
#137800
b1100011 (
1#
#138000
0#
#138200
b1100010 (
1#
#138400
0#
#138600
b1100001 (
1#
#138800
0#
#139000
b1100000 (
1#
#139200
0#
#139400
b1011111 (
1#
#139600
0#
#139800
b1011110 (
1#
#140000
0#
#140200
b1011101 (
1#
#140400
0#
#140600
b1011100 (
1#
#140800
0#
#141000
b1011011 (
1#
#141200
0#
#141400
b1011010 (
1#
#141600
0#
#141800
b1011001 (
1#
#142000
0#
#142200
b1011000 (
1#
#142400
0#
#142600
b1010111 (
1#
#142800
0#
#143000
b1010110 (
1#
#143200
0#
#143400
b1010101 (
1#
#143600
0#
#143800
b1010100 (
1#
#144000
0#
#144200
b1010011 (
1#
#144400
0#
#144600
b1010010 (
1#
#144800
0#
#145000
b1010001 (
1#
#145200
0#
#145400
b1010000 (
1#
#145600
0#
#145800
b1001111 (
1#
#146000
0#
#146200
b1001110 (
1#
#146400
0#
#146600
b1001101 (
1#
#146800
0#
#147000
b1001100 (
1#
#147200
0#
#147400
b1001011 (
1#
#147600
0#
#147800
b1001010 (
1#
#148000
0#
#148200
b1001001 (
1#
#148400
0#
#148600
b1001000 (
1#
#148800
0#
#149000
b1000111 (
1#
#149200
0#
#149400
b1000110 (
1#
#149600
0#
#149800
b1000101 (
1#
#150000
0#
#150200
b1000100 (
1#
#150400
0#
#150600
b1000011 (
1#
#150800
0#
#151000
b1000010 (
1#
#151200
0#
#151400
b1000001 (
1#
#151600
0#
#151800
b1000000 (
1#
#152000
0#
#152200
b111111 (
1#
#152400
0#
#152600
b111110 (
1#
#152800
0#
#153000
b111101 (
1#
#153200
0#
#153400
b111100 (
1#
#153600
0#
#153800
b111011 (
1#
#154000
0#
#154200
b111010 (
1#
#154400
0#
#154600
b111001 (
1#
#154800
0#
#155000
b111000 (
1#
#155200
0#
#155400
b110111 (
1#
#155600
0#
#155800
b110110 (
1#
#156000
0#
#156200
b110101 (
1#
#156400
0#
#156600
b110100 (
1#
#156800
0#
#157000
b110011 (
1#
#157200
0#
#157400
b110010 (
1#
#157600
0#
#157800
b110001 (
1#
#158000
0#
#158200
b110000 (
1#
#158400
0#
#158600
b101111 (
1#
#158800
0#
#159000
b101110 (
1#
#159200
0#
#159400
b101101 (
1#
#159600
0#
#159800
b101100 (
1#
#160000
0#
#160200
b101011 (
1#
#160400
0#
#160600
b101010 (
1#
#160800
0#
#161000
b101001 (
1#
#161200
0#
#161400
b101000 (
1#
#161600
0#
#161800
b100111 (
1#
#162000
0#
#162200
b100110 (
1#
#162400
0#
#162600
b100101 (
1#
#162800
0#
#163000
b100100 (
1#
#163200
0#
#163400
b100011 (
1#
#163600
0#
#163800
b100010 (
1#
#164000
0#
#164200
b100001 (
1#
#164400
0#
#164600
b100000 (
1#
#164800
0#
#165000
b11111 (
1#
#165200
0#
#165400
b11110 (
1#
#165600
0#
#165800
b11101 (
1#
#166000
0#
#166200
b11100 (
1#
#166400
0#
#166600
b11011 (
1#
#166800
0#
#167000
b11010 (
1#
#167200
0#
#167400
b11001 (
1#
#167600
0#
#167800
b11000 (
1#
#168000
0#
#168200
b10111 (
1#
#168400
0#
#168600
b10110 (
1#
#168800
0#
#169000
b10101 (
1#
#169200
0#
#169400
b10100 (
1#
#169600
0#
#169800
b10011 (
1#
#170000
0#
#170200
b10010 (
1#
#170400
0#
#170600
b10001 (
1#
#170800
0#
#171000
b10000 (
1#
#171200
0#
#171400
b1111 (
1#
#171600
0#
#171800
b1110 (
1#
#172000
0#
#172200
b1101 (
1#
#172400
0#
#172600
b1100 (
1#
#172800
0#
#173000
b1011 (
1#
#173200
0#
#173400
b1010 (
1#
#173600
0#
#173800
b1001 (
1#
#174000
0#
#174200
b1000 (
1#
#174400
0#
#174600
b111 (
1#
#174800
0#
#175000
b110 (
1#
#175200
0#
#175400
b101 (
1#
#175600
0#
#175800
b100 (
1#
#176000
0#
#176200
b11 (
1#
#176400
0#
#176600
b10 (
1#
#176800
0#
#177000
b1 (
1#
#177200
0#
#177400
b0 (
1'
1#
#177600
0#
#177800
b10 *
b110100100 )
0'
b11011000 (
1#
#178000
0#
#178200
b11010111 (
1#
#178400
0#
#178600
b11010110 (
1#
#178800
0#
#179000
b11010101 (
1#
#179200
0#
#179400
b11010100 (
1#
#179600
0#
#179800
b11010011 (
1#
#180000
0#
#180200
b11010010 (
1#
#180400
0#
#180600
b11010001 (
1#
#180800
0#
#181000
b11010000 (
1#
#181200
0#
#181400
b11001111 (
1#
#181600
0#
#181800
b11001110 (
1#
#182000
0#
#182200
b11001101 (
1#
#182400
0#
#182600
b11001100 (
1#
#182800
0#
#183000
b11001011 (
1#
#183200
0#
#183400
b11001010 (
1#
#183600
0#
#183800
b11001001 (
1#
#184000
0#
#184200
b11001000 (
1#
#184400
0#
#184600
b11000111 (
1#
#184800
0#
#185000
b11000110 (
1#
#185200
0#
#185400
b11000101 (
1#
#185600
0#
#185800
b11000100 (
1#
#186000
0#
#186200
b11000011 (
1#
#186400
0#
#186600
b11000010 (
1#
#186800
0#
#187000
b11000001 (
1#
#187200
0#
#187400
b11000000 (
1#
#187600
0#
#187800
b10111111 (
1#
#188000
0#
#188200
b10111110 (
1#
#188400
0#
#188600
b10111101 (
1#
#188800
0#
#189000
b10111100 (
1#
#189200
0#
#189400
b10111011 (
1#
#189600
0#
#189800
b10111010 (
1#
#190000
0#
#190200
b10111001 (
1#
#190400
0#
#190600
b10111000 (
1#
#190800
0#
#191000
b10110111 (
1#
#191200
0#
#191400
b10110110 (
1#
#191600
0#
#191800
b10110101 (
1#
#192000
0#
#192200
b10110100 (
1#
#192400
0#
#192600
b10110011 (
1#
#192800
0#
#193000
b10110010 (
1#
#193200
0#
#193400
b10110001 (
1#
#193600
0#
#193800
b10110000 (
1#
#194000
0#
#194200
b10101111 (
1#
#194400
0#
#194600
b10101110 (
1#
#194800
0#
#195000
b10101101 (
1#
#195200
0#
#195400
b10101100 (
1#
#195600
0#
#195800
b10101011 (
1#
#196000
0#
#196200
b10101010 (
1#
#196400
0#
#196600
b10101001 (
1#
#196800
0#
#197000
b10101000 (
1#
#197200
0#
#197400
b10100111 (
1#
#197600
0#
#197800
b10100110 (
1#
#198000
0#
#198200
b10100101 (
1#
#198400
0#
#198600
b10100100 (
1#
#198800
0#
#199000
b10100011 (
1#
#199200
0#
#199400
b10100010 (
1#
#199600
0#
#199800
b10100001 (
1#
#200000
0#
#200200
b10100000 (
1#
#200400
0#
#200600
b10011111 (
1#
#200800
0#
#201000
b10011110 (
1#
#201200
0#
#201400
b10011101 (
1#
#201600
0#
#201800
b10011100 (
1#
#202000
0#
#202200
b10011011 (
1#
#202400
0#
#202600
b10011010 (
1#
#202800
0#
#203000
b10011001 (
1#
#203200
0#
#203400
b10011000 (
1#
#203600
0#
#203800
b10010111 (
1#
#204000
0#
#204200
b10010110 (
1#
#204400
0#
#204600
b10010101 (
1#
#204800
0#
#205000
b10010100 (
1#
#205200
0#
#205400
b10010011 (
1#
#205600
0#
#205800
b10010010 (
1#
#206000
0#
#206200
b10010001 (
1#
#206400
0#
#206600
b10010000 (
1#
#206800
0#
#207000
b10001111 (
1#
#207200
0#
#207400
b10001110 (
1#
#207600
0#
#207800
b10001101 (
1#
#208000
0#
#208200
b10001100 (
1#
#208400
0#
#208600
b10001011 (
1#
#208800
0#
#209000
b10001010 (
1#
#209200
0#
#209400
b10001001 (
1#
#209600
0#
#209800
b10001000 (
1#
#210000
0#
#210200
b10000111 (
1#
#210400
0#
#210600
b10000110 (
1#
#210800
0#
#211000
b10000101 (
1#
#211200
0#
#211400
b10000100 (
1#
#211600
0#
#211800
b10000011 (
1#
#212000
0#
#212200
b10000010 (
1#
#212400
0#
#212600
b10000001 (
1#
#212800
0#
#213000
b10000000 (
1#
#213200
0#
#213400
b1111111 (
1#
#213600
0#
#213800
b1111110 (
1#
#214000
0#
#214200
b1111101 (
1#
#214400
0#
#214600
b1111100 (
1#
#214800
0#
#215000
b1111011 (
1#
#215200
0#
#215400
b1111010 (
1#
#215600
0#
#215800
b1111001 (
1#
#216000
0#
#216200
b1111000 (
1#
#216400
0#
#216600
b1110111 (
1#
#216800
0#
#217000
b1110110 (
1#
#217200
0#
#217400
b1110101 (
1#
#217600
0#
#217800
b1110100 (
1#
#218000
0#
#218200
b1110011 (
1#
#218400
0#
#218600
b1110010 (
1#
#218800
0#
#219000
b1110001 (
1#
#219200
0#
#219400
b1110000 (
1#
#219600
0#
#219800
b1101111 (
1#
#220000
0#
#220200
b1101110 (
1#
#220400
0#
#220600
b1101101 (
1#
#220800
0#
#221000
b1101100 (
1#
#221200
0#
#221400
b1101011 (
1#
#221600
0#
#221800
b1101010 (
1#
#222000
0#
#222200
b1101001 (
1#
#222400
0#
#222600
b1101000 (
1#
#222800
0#
#223000
b1100111 (
1#
#223200
0#
#223400
b1100110 (
1#
#223600
0#
#223800
b1100101 (
1#
#224000
0#
#224200
b1100100 (
1#
#224400
0#
#224600
b1100011 (
1#
#224800
0#
#225000
b1100010 (
1#
#225200
0#
#225400
b1100001 (
1#
#225600
0#
#225800
b1100000 (
1#
#226000
0#
#226200
b1011111 (
1#
#226400
0#
#226600
b1011110 (
1#
#226800
0#
#227000
b1011101 (
1#
#227200
0#
#227400
b1011100 (
1#
#227600
0#
#227800
b1011011 (
1#
#228000
0#
#228200
b1011010 (
1#
#228400
0#
#228600
b1011001 (
1#
#228800
0#
#229000
b1011000 (
1#
#229200
0#
#229400
b1010111 (
1#
#229600
0#
#229800
b1010110 (
1#
#230000
0#
#230200
b1010101 (
1#
#230400
0#
#230600
b1010100 (
1#
#230800
0#
#231000
b1010011 (
1#
#231200
0#
#231400
b1010010 (
1#
#231600
0#
#231800
b1010001 (
1#
#232000
0#
#232200
b1010000 (
1#
#232400
0#
#232600
b1001111 (
1#
#232800
0#
#233000
b1001110 (
1#
#233200
0#
#233400
b1001101 (
1#
#233600
0#
#233800
b1001100 (
1#
#234000
0#
#234200
b1001011 (
1#
#234400
0#
#234600
b1001010 (
1#
#234800
0#
#235000
b1001001 (
1#
#235200
0#
#235400
b1001000 (
1#
#235600
0#
#235800
b1000111 (
1#
#236000
0#
#236200
b1000110 (
1#
#236400
0#
#236600
b1000101 (
1#
#236800
0#
#237000
b1000100 (
1#
#237200
0#
#237400
b1000011 (
1#
#237600
0#
#237800
b1000010 (
1#
#238000
0#
#238200
b1000001 (
1#
#238400
0#
#238600
b1000000 (
1#
#238800
0#
#239000
b111111 (
1#
#239200
0#
#239400
b111110 (
1#
#239600
0#
#239800
b111101 (
1#
#240000
0#
#240200
b111100 (
1#
#240400
0#
#240600
b111011 (
1#
#240800
0#
#241000
b111010 (
1#
#241200
0#
#241400
b111001 (
1#
#241600
0#
#241800
b111000 (
1#
#242000
0#
#242200
b110111 (
1#
#242400
0#
#242600
b110110 (
1#
#242800
0#
#243000
b110101 (
1#
#243200
0#
#243400
b110100 (
1#
#243600
0#
#243800
b110011 (
1#
#244000
0#
#244200
b110010 (
1#
#244400
0#
#244600
b110001 (
1#
#244800
0#
#245000
b110000 (
1#
#245200
0#
#245400
b101111 (
1#
#245600
0#
#245800
b101110 (
1#
#246000
0#
#246200
b101101 (
1#
#246400
0#
#246600
b101100 (
1#
#246800
0#
#247000
b101011 (
1#
#247200
0#
#247400
b101010 (
1#
#247600
0#
#247800
b101001 (
1#
#248000
0#
#248200
b101000 (
1#
#248400
0#
#248600
b100111 (
1#
#248800
0#
#249000
b100110 (
1#
#249200
0#
#249400
b100101 (
1#
#249600
0#
#249800
b100100 (
1#
#250000
0#
#250200
b100011 (
1#
#250400
0#
#250600
b100010 (
1#
#250800
0#
#251000
b100001 (
1#
#251200
0#
#251400
b100000 (
1#
#251600
0#
#251800
b11111 (
1#
#252000
0#
#252200
b11110 (
1#
#252400
0#
#252600
b11101 (
1#
#252800
0#
#253000
b11100 (
1#
#253200
0#
#253400
b11011 (
1#
#253600
0#
#253800
b11010 (
1#
#254000
0#
#254200
b11001 (
1#
#254400
0#
#254600
b11000 (
1#
#254800
0#
#255000
b10111 (
1#
#255200
0#
#255400
b10110 (
1#
#255600
0#
#255800
b10101 (
1#
#256000
0#
#256200
b10100 (
1#
#256400
0#
#256600
b10011 (
1#
#256800
0#
#257000
b10010 (
1#
#257200
0#
#257400
b10001 (
1#
#257600
0#
#257800
b10000 (
1#
#258000
0#
#258200
b1111 (
1#
#258400
0#
#258600
b1110 (
1#
#258800
0#
#259000
b1101 (
1#
#259200
0#
#259400
b1100 (
1#
#259600
0#
#259800
b1011 (
1#
#260000
0#
#260200
b1010 (
1#
#260400
0#
#260600
b1001 (
1#
#260800
0#
#261000
b1000 (
1#
#261200
0#
#261400
b111 (
1#
#261600
0#
#261800
b110 (
1#
#262000
0#
#262200
b101 (
1#
#262400
0#
#262600
b100 (
1#
#262800
0#
#263000
b11 (
1#
#263200
0#
#263400
b10 (
1#
#263600
0#
#263800
b1 (
1#
#264000
0#
#264200
b0 (
1'
1#
#264400
0#
#264600
0'
b11011000 (
b111010010 )
b11 *
1#
#264800
0#
#265000
b11010111 (
1#
#265200
0#
#265400
b11010110 (
1#
#265600
0#
#265800
b11010101 (
1#
#266000
0#
#266200
b11010100 (
1#
#266400
0#
#266600
b11010011 (
1#
#266800
0#
#267000
b11010010 (
1#
#267200
0#
#267400
b11010001 (
1#
#267600
0#
#267800
b11010000 (
1#
#268000
0#
#268200
b11001111 (
1#
#268400
0#
#268600
b11001110 (
1#
#268800
0#
#269000
b11001101 (
1#
#269200
0#
#269400
b11001100 (
1#
#269600
0#
#269800
b11001011 (
1#
#270000
0#
#270200
b11001010 (
1#
#270400
0#
#270600
b11001001 (
1#
#270800
0#
#271000
b11001000 (
1#
#271200
0#
#271400
b11000111 (
1#
#271600
0#
#271800
b11000110 (
1#
#272000
0#
#272200
b11000101 (
1#
#272400
0#
#272600
b11000100 (
1#
#272800
0#
#273000
b11000011 (
1#
#273200
0#
#273400
b11000010 (
1#
#273600
0#
#273800
b11000001 (
1#
#274000
0#
#274200
b11000000 (
1#
#274400
0#
#274600
b10111111 (
1#
#274800
0#
#275000
b10111110 (
1#
#275200
0#
#275400
b10111101 (
1#
#275600
0#
#275800
b10111100 (
1#
#276000
0#
#276200
b10111011 (
1#
#276400
0#
#276600
b10111010 (
1#
#276800
0#
#277000
b10111001 (
1#
#277200
0#
#277400
b10111000 (
1#
#277600
0#
#277800
b10110111 (
1#
#278000
0#
#278200
b10110110 (
1#
#278400
0#
#278600
b10110101 (
1#
#278800
0#
#279000
b10110100 (
1#
#279200
0#
#279400
b10110011 (
1#
#279600
0#
#279800
b10110010 (
1#
#280000
0#
#280200
b10110001 (
1#
#280400
0#
#280600
b10110000 (
1#
#280800
0#
#281000
b10101111 (
1#
#281200
0#
#281400
b10101110 (
1#
#281600
0#
